{
  "page": 1,
  "total_results": 10000,
  "total_pages": 500,
  "results": [
    {
      "popularity": 1380.001,
      "vote_count": 64,
      "video": false,
      "poster_path": "/h8Rb9gBr48ODIwYUttZNYeMWeUU.jpg",
      "id": 635302,
      "adult": false,
      "backdrop_path": "/xoqr4dMbRJnzuhsWDF3XNHQwJ9x.jpg",
      "original_language": "ja",
      "original_title": "劇場版「鬼滅の刃」無限列車編",
      "genre_ids": [
        16,
        28,
        36,
        12,
        14,
        18
      ],
      "title": "Demon Slayer: Kimetsu no Yaiba - The Movie: Mugen Train",
      "vote_average": 6.1,
      "overview": "Tanjirō Kamado, joined with Inosuke Hashibira, a boy raised by boars who wears a boar's head, and Zenitsu Agatsuma, a scared boy who reveals his true power when he sleeps, boards the Infinity Train on a new mission with the Fire Hashira, Kyōjurō Rengoku, to defeat a demon who has been tormenting the people and killing the demon slayers who oppose it!",
      "release_date": "2020-10-16"
    },
    {
      "popularity": 1732.713,
      "vote_count": 112,
      "video": false,
      "poster_path": "/ugZW8ocsrfgI95pnQ7wrmKDxIe.jpg",
      "id": 724989,
      "adult": false,
      "backdrop_path": "/86L8wqGMDbwURPni2t7FQ0nDjsH.jpg",
      "original_language": "en",
      "original_title": "Hard Kill",
      "genre_ids": [
        28,
        53
      ],
      "title": "Hard Kill",
      "vote_average": 5,
      "overview": "The work of billionaire tech CEO Donovan Chalmers is so valuable that he hires mercenaries to protect it, and a terrorist group kidnaps his daughter just to get it.",
      "release_date": "2020-10-23"
    },
    {
      "popularity": 1661.695,
      "vote_count": 602,
      "video": false,
      "poster_path": "/betExZlgK0l7CZ9CsCBVcwO1OjL.jpg",
      "id": 531219,
      "adult": false,
      "backdrop_path": "/4lWr2j3ZSEe8qlt3W3ma8TiiMQB.jpg",
      "original_language": "en",
      "original_title": "Roald Dahl's The Witches",
      "genre_ids": [
        14,
        10751,
        12,
        35,
        27
      ],
      "title": "Roald Dahl's The Witches",
      "vote_average": 7,
      "overview": "In late 1967, a young orphaned boy goes to live with his loving grandma in the rural Alabama town of Demopolis. As the boy and his grandmother encounter some deceptively glamorous but thoroughly diabolical witches, she wisely whisks him away to a seaside resort. Regrettably, they arrive at precisely the same time that the world's Grand High Witch has gathered.",
      "release_date": "2020-10-26"
    },
    {
      "popularity": 1560.835,
      "vote_count": 1108,
      "video": false,
      "poster_path": "/jlJ8nDhMhCYJuzOw3f52CP1W8MW.jpg",
      "id": 400160,
      "adult": false,
      "backdrop_path": "/wu1uilmhM4TdluKi2ytfz8gidHf.jpg",
      "original_language": "en",
      "original_title": "The SpongeBob Movie: Sponge on the Run",
      "genre_ids": [
        14,
        16,
        12,
        35,
        10751
      ],
      "title": "The SpongeBob Movie: Sponge on the Run",
      "vote_average": 8.3,
      "overview": "When his best friend Gary is suddenly snatched away, SpongeBob takes Patrick on a madcap mission far beyond Bikini Bottom to save their pink-shelled pal.",
      "release_date": "2020-08-14"
    },
    {
      "popularity": 1286.086,
      "vote_count": 293,
      "video": false,
      "poster_path": "/7D430eqZj8y3oVkLFfsWXGRcpEG.jpg",
      "id": 528085,
      "adult": false,
      "backdrop_path": "/5UkzNSOK561c2QRy2Zr4AkADzLT.jpg",
      "original_language": "en",
      "original_title": "2067",
      "genre_ids": [
        878,
        53,
        18
      ],
      "title": "2067",
      "vote_average": 4.9,
      "overview": "A lowly utility worker is called to the future by a mysterious radio signal, he must leave his dying wife to embark on a journey that will force him to face his deepest fears in an attempt to change the fabric of reality and save humankind from its greatest environmental crisis yet.",
      "release_date": "2020-10-01"
    },
    {
      "popularity": 1075.075,
      "vote_count": 126,
      "video": false,
      "poster_path": "/hddzYJtfYYeMDOQVcH58n8m1W3A.jpg",
      "id": 741074,
      "adult": false,
      "backdrop_path": "/DA7gzvlBoxMNL0XmGgTZOyv67P.jpg",
      "original_language": "en",
      "original_title": "Once Upon a Snowman",
      "genre_ids": [
        16,
        10751,
        35,
        14
      ],
      "title": "Once Upon a Snowman",
      "vote_average": 7.3,
      "overview": "The previously untold origins of Olaf, the innocent and insightful, summer-loving snowman are revealed as we follow Olaf’s first steps as he comes to life and searches for his identity in the snowy mountains outside Arendelle.",
      "release_date": "2020-10-23"
    },
    {
      "popularity": 903.538,
      "vote_count": 152,
      "video": false,
      "poster_path": "/elZ6JCzSEvFOq4gNjNeZsnRFsvj.jpg",
      "id": 741067,
      "adult": false,
      "backdrop_path": "/aO5ILS7qnqtFIprbJ40zla0jhpu.jpg",
      "original_language": "en",
      "original_title": "Welcome to Sudden Death",
      "genre_ids": [
        28,
        53,
        12,
        18
      ],
      "title": "Welcome to Sudden Death",
      "vote_average": 6.3,
      "overview": "Jesse Freeman is a former special forces officer and explosives expert now working a regular job as a security guard in a state-of-the-art basketball arena. Trouble erupts when a tech-savvy cadre of terrorists kidnap the team's owner and Jesse's daughter during opening night. Facing a ticking clock and impossible odds, it's up to Jesse to not only save them but also a full house of fans in this highly charged action thriller.",
      "release_date": "2020-09-29"
    },
    {
      "popularity": 796.405,
      "vote_count": 352,
      "video": false,
      "poster_path": "/lQfdytwN7eh0tXWjIiMceFdBBvD.jpg",
      "id": 560050,
      "adult": false,
      "backdrop_path": "/htBUhLSS7FfHtydgYxUWjL3J1Q1.jpg",
      "original_language": "en",
      "original_title": "Over the Moon",
      "genre_ids": [
        16,
        12,
        10751,
        14
      ],
      "title": "Over the Moon",
      "vote_average": 7.7,
      "overview": "A girl builds a rocket to travel to the moon in hopes of meeting the legendary Moon Goddess.",
      "release_date": "2020-10-16"
    },
    {
      "popularity": 800.607,
      "vote_count": 2517,
      "video": false,
      "poster_path": "/riYInlsq2kf1AWoGm80JQW5dLKp.jpg",
      "id": 497582,
      "adult": false,
      "backdrop_path": "/kMe4TKMDNXTKptQPAdOF0oZHq3V.jpg",
      "original_language": "en",
      "original_title": "Enola Holmes",
      "genre_ids": [
        80,
        18,
        9648
      ],
      "title": "Enola Holmes",
      "vote_average": 7.5,
      "overview": "While searching for her missing mother, intrepid teen Enola Holmes uses her sleuthing skills to outsmart big brother Sherlock and help a runaway lord.",
      "release_date": "2020-09-23"
    },
    {
      "popularity": 1158.648,
      "vote_count": 140,
      "video": false,
      "poster_path": "/9HT9982bzgN5on1sLRmc1GMn6ZC.jpg",
      "id": 671039,
      "adult": false,
      "backdrop_path": "/gnf4Cb2rms69QbCnGFJyqwBWsxv.jpg",
      "original_language": "fr",
      "original_title": "Bronx",
      "genre_ids": [
        53,
        28,
        18,
        80
      ],
      "title": "Rogue City",
      "vote_average": 6.4,
      "overview": "Caught in the crosshairs of police corruption and Marseille’s warring gangs, a loyal cop must protect his squad by taking matters into his own hands.",
      "release_date": "2020-10-30"
    }
  ]
}
