{
  "page": 1,
  "total_results": 10000,
  "total_pages": 500,
  "results": [
    {
      "original_name": "The Good Doctor",
      "genre_ids": [
        18
      ],
      "name": "The Good Doctor",
      "popularity": 1262.912,
      "origin_country": [
        "US"
      ],
      "vote_count": 5483,
      "first_air_date": "2017-09-25",
      "backdrop_path": "/iDbIEpCM9nhoayUDTwqFL1iVwzb.jpg",
      "original_language": "en",
      "id": 71712,
      "vote_average": 8.6,
      "overview": "A young surgeon with Savant syndrome is recruited into the surgical unit of a prestigious hospital. The question will arise: can a person who doesn't have the ability to relate to people actually save their lives?",
      "poster_path": "/6tfT03sGp9k4c0J3dypjrI8TSAI.jpg"
    },
    {
      "original_name": "The Mandalorian",
      "genre_ids": [
        10765,
        10759,
        37
      ],
      "name": "The Mandalorian",
      "popularity": 1154.887,
      "origin_country": [
        "US"
      ],
      "vote_count": 2139,
      "first_air_date": "2019-11-12",
      "backdrop_path": "/9ijMGlJKqcslswWUzTEwScm82Gs.jpg",
      "original_language": "en",
      "id": 82856,
      "vote_average": 8.5,
      "overview": "After the fall of the Galactic Empire, lawlessness has spread throughout the galaxy. A lone gunfighter makes his way through the outer reaches, earning his keep as a bounty hunter.",
      "poster_path": "/sWgBv7LV2PRoQgkxwlibdGXKz1S.jpg"
    },
    {
      "original_name": "Fear the Walking Dead",
      "genre_ids": [
        10759,
        18
      ],
      "name": "Fear the Walking Dead",
      "popularity": 726.736,
      "origin_country": [
        "US"
      ],
      "vote_count": 2552,
      "first_air_date": "2015-08-23",
      "backdrop_path": "/58PON1OrnBiX6CqEHgeWKVwrCn6.jpg",
      "original_language": "en",
      "id": 62286,
      "vote_average": 7.4,
      "overview": "What did the world look like as it was transforming into the horrifying apocalypse depicted in \"The Walking Dead\"? This spin-off set in Los Angeles, following new characters as they face the beginning of the end of the world, will answer that question.",
      "poster_path": "/wGFUewXPeMErCe2xnCmmLEiHOGh.jpg"
    },
    {
      "original_name": "Lucifer",
      "genre_ids": [
        80,
        10765
      ],
      "name": "Lucifer",
      "popularity": 617.445,
      "origin_country": [
        "US"
      ],
      "vote_count": 6235,
      "first_air_date": "2016-01-25",
      "backdrop_path": "/ta5oblpMlEcIPIS2YGcq9XEkWK2.jpg",
      "original_language": "en",
      "id": 63174,
      "vote_average": 8.5,
      "overview": "Bored and unhappy as the Lord of Hell, Lucifer Morningstar abandoned his throne and retired to Los Angeles, where he has teamed up with LAPD detective Chloe Decker to take down criminals. But the longer he's away from the underworld, the greater the threat that the worst of humanity could escape.",
      "poster_path": "/4EYPN5mVIhKLfxGruy7Dy41dTVn.jpg"
    },
    {
      "original_name": "The Boys",
      "genre_ids": [
        10765,
        10759
      ],
      "name": "The Boys",
      "popularity": 523.915,
      "origin_country": [
        "US"
      ],
      "vote_count": 3460,
      "first_air_date": "2019-07-25",
      "backdrop_path": "/mGVrXeIjyecj6TKmwPVpHlscEmw.jpg",
      "original_language": "en",
      "id": 76479,
      "vote_average": 8.4,
      "overview": "A group of vigilantes known informally as “The Boys” set out to take down corrupt superheroes with no more than blue-collar grit and a willingness to fight dirty.",
      "poster_path": "/mY7SeH4HFFxW1hiI6cWuwCRKptN.jpg"
    },
    {
      "original_name": "The Queen's Gambit",
      "genre_ids": [
        18
      ],
      "name": "The Queen's Gambit",
      "popularity": 479.349,
      "origin_country": [
        "US"
      ],
      "vote_count": 263,
      "first_air_date": "2020-10-23",
      "backdrop_path": "/34OGjFEbHj0E3lE2w0iTUVq0CBz.jpg",
      "original_language": "en",
      "id": 87739,
      "vote_average": 8.9,
      "overview": "In a Kentucky orphanage in the 1950s, a young girl discovers an astonishing talent for chess while struggling with addiction.",
      "poster_path": "/zU0htwkhNvBQdVSIKB9s6hgVeFK.jpg"
    },
    {
      "original_name": "The Walking Dead: World Beyond",
      "genre_ids": [
        18,
        10765,
        9648
      ],
      "name": "The Walking Dead: World Beyond",
      "popularity": 470.054,
      "origin_country": [
        "US"
      ],
      "vote_count": 384,
      "first_air_date": "2020-10-04",
      "backdrop_path": "/pLVrN9B750ehwTFdQ6n3HRUERLd.jpg",
      "original_language": "en",
      "id": 94305,
      "vote_average": 7.7,
      "overview": "A heroic group of teens sheltered from the dangers of the post-apocalyptic world receive a message that inspires them to leave the safety of the only home they have ever known and embark on a cross-country journey to find the one man who can possibly save the world.",
      "poster_path": "/z31GxpVgDsFAF4paZR8PRsiP16D.jpg"
    },
    {
      "original_name": "His Dark Materials",
      "genre_ids": [
        18,
        10765
      ],
      "name": "His Dark Materials",
      "popularity": 430.44,
      "origin_country": [
        "GB"
      ],
      "vote_count": 510,
      "first_air_date": "2019-11-03",
      "backdrop_path": "/9yKCJTOh9m3Lol2RY3kw99QPH6x.jpg",
      "original_language": "en",
      "id": 68507,
      "vote_average": 8.1,
      "overview": "Lyra is an orphan who lives in a parallel universe in which science, theology and magic are entwined. Lyra's search for a kidnapped friend uncovers a sinister plot involving stolen children, and turns into a quest to understand a mysterious phenomenon called Dust. She is later joined on her journey by Will, a boy who possesses a knife that can cut windows between worlds. As Lyra learns the truth about her parents and her prophesied destiny, the two young people are caught up in a war against celestial powers that ranges across many worlds.",
      "poster_path": "/g6tIKGc3f1H5QMz1dcgCwADKpZ7.jpg"
    },
    {
      "original_name": "Grey's Anatomy",
      "genre_ids": [
        18
      ],
      "name": "Grey's Anatomy",
      "popularity": 406.915,
      "origin_country": [
        "US"
      ],
      "vote_count": 4009,
      "first_air_date": "2005-03-27",
      "backdrop_path": "/3IIBf6VlwEyKAX4cN2XCM1gKdgM.jpg",
      "original_language": "en",
      "id": 1416,
      "vote_average": 8,
      "overview": "Follows the personal and professional lives of a group of doctors at Seattle’s Grey Sloan Memorial Hospital.",
      "poster_path": "/clnyhPqj1SNgpAdeSS6a6fwE6Bo.jpg"
    },
    {
      "original_name": "The Simpsons",
      "id": 456,
      "name": "The Simpsons",
      "popularity": 374.233,
      "vote_count": 5159,
      "vote_average": 7.7,
      "first_air_date": "1989-12-16",
      "poster_path": "/2IWouZK4gkgHhJa3oyYuSWfSqbG.jpg",
      "genre_ids": [
        16,
        35,
        10751,
        18
      ],
      "original_language": "en",
      "backdrop_path": "/hpU2cHC9tk90hswCFEpf5AtbqoL.jpg",
      "overview": "Set in Springfield, the average American town, the show focuses on the antics and everyday adventures of the Simpson family; Homer, Marge, Bart, Lisa and Maggie, as well as a virtual cast of thousands. Since the beginning, the series has been a pop culture icon, attracting hundreds of celebrities to guest star. The show has also made name for itself in its fearless satirical take on politics, media and American life in general.",
      "origin_country": [
        "US"
      ]
    }
  ]
}